{
	"info": {
		"_postman_id": "264c594a-9915-46fd-a828-4b7f975741ce",
		"name": "api-stack-api-gateway",
		"schema": "https://schema.getpostman.com/json/collection/v2.1.0/collection.json"
	},
	"item": [
		{
			"name": "users",
			"item": [
				{
					"name": "",
					"request": {
						"method": "PUT",
						"header": [
							{
								"key": "Content-Type",
								"value": "application/json"
							}
						],
						"body": {},
						"url": {
							"raw": "https://yyj0uj0y5l.execute-api.us-east-1.amazonaws.com/DEV/users",
							"protocol": "https",
							"host": [
								"yyj0uj0y5l",
								"execute-api",
								"us-east-1",
								"amazonaws",
								"com"
							],
							"path": [
								"DEV",
								"users"
							]
						}
					},
					"response": []
				},
				{
					"name": "",
					"request": {
						"method": "POST",
						"header": [
							{
								"key": "x-api-key",
								"value": "0ppP1XajDU8wawwgmPH8p83IPBIKJ1R01dNoK4ZP",
								"type": "text"
							},
							{
								"key": "Content-Type",
								"name": "Content-Type",
								"value": "application/json",
								"type": "text"
							}
						],
						"body": {
							"mode": "raw",
							"raw": " {\r\n    \"name\": \"Joe\",\r\n    \"email\": \"joe@mail.com\",\r\n    \"dob\": \"1992/11/13\"\r\n }"
						},
						"url": {
							"raw": "https://yyj0uj0y5l.execute-api.us-east-1.amazonaws.com/DEV/users",
							"protocol": "https",
							"host": [
								"yyj0uj0y5l",
								"execute-api",
								"us-east-1",
								"amazonaws",
								"com"
							],
							"path": [
								"DEV",
								"users"
							]
						}
					},
					"response": []
				},
				{
					"name": "",
					"request": {
						"method": "GET",
						"header": [
							{
								"key": "Content-Type",
								"value": "application/json"
							},
							{
								"key": "x-api-key",
								"value": "0ppP1XajDU8wawwgmPH8p83IPBIKJ1R01dNoK4ZP",
								"type": "text"
							}
						],
						"body": {
							"mode": "raw",
							"raw": ""
						},
						"url": {
							"raw": "https://yyj0uj0y5l.execute-api.us-east-1.amazonaws.com/DEV/users/list",
							"protocol": "https",
							"host": [
								"yyj0uj0y5l",
								"execute-api",
								"us-east-1",
								"amazonaws",
								"com"
							],
							"path": [
								"DEV",
								"users",
								"list"
							],
							"query": [
								{
									"key": "",
									"value": ""
								}
							]
						}
					},
					"response": []
				},
				{
					"name": "",
					"request": {
						"method": "GET",
						"header": [
							{
								"key": "Content-Type",
								"value": "application/json"
							},
							{
								"key": "x-api-key",
								"value": "0ppP1XajDU8wawwgmPH8p83IPBIKJ1R01dNoK4ZP",
								"type": "text"
							}
						],
						"body": {
							"mode": "raw",
							"raw": ""
						},
						"url": {
							"raw": "https://yyj0uj0y5l.execute-api.us-east-1.amazonaws.com/DEV/users/:id",
							"protocol": "https",
							"host": [
								"yyj0uj0y5l",
								"execute-api",
								"us-east-1",
								"amazonaws",
								"com"
							],
							"path": [
								"DEV",
								"users",
								":id"
							],
							"variable": [
								{
									"key": "id",
									"value": ""
								}
							]
						}
					},
					"response": []
				},
				{
					"name": "",
					"request": {
						"method": "DELETE",
						"header": [
							{
								"key": "Content-Type",
								"value": "application/json"
							},
							{
								"key": "x-api-key",
								"value": "0ppP1XajDU8wawwgmPH8p83IPBIKJ1R01dNoK4ZP",
								"type": "text"
							}
						],
						"body": {},
						"url": {
							"raw": "https://yyj0uj0y5l.execute-api.us-east-1.amazonaws.com/DEV/users/5",
							"protocol": "https",
							"host": [
								"yyj0uj0y5l",
								"execute-api",
								"us-east-1",
								"amazonaws",
								"com"
							],
							"path": [
								"DEV",
								"users",
								"5"
							]
						}
					},
					"response": []
				}
			],
			"description": "Folder for users"
		}
	]
}